wokwi-logic(3).vcd
$version Generated by Wokwi.com $end
$date Tue, 08 Apr 2025 14:22:29 GMT $end
$timescale 1ns $end
$scope module logic $end
$var wire 1 ! D0 $end
$var wire 1 " D1 $end
$var wire 1 # D2 $end
$var wire 1 $ D3 $end
$var wire 1 % D4 $end
$var wire 1 & D5 $end
$upscope $end
$enddefinitions $end
#0
0!
#0
1"
#0
0#
#0
0$
#0
1%
#0
0&
#527515131
1!
#527850656
1#
#528131675
0%
#528431675
1&
#530137455
0&
#1528806392
1%
#1528822854
0%
#1529122854
1&
#1530828634
0&
#2528805854
1%
#2528825696
0%
#2529125696
1&
#2530831476
0&
#3100099703
0!
#3100142266
1!
#3100169230
0!
#3100261596
1!
#3100413063
0!
#3100443830
1!
#3100546948
0!
#3100602373
1!
#3100624635
0!
#3100756385
1!
#3100852004
0!
#3100993728
1!
#3101112561
0!
#3101187355
1!
#3101236378
0!
#3101334980
1!
#3101458151
0!
#3101587656
1!
#3101605057
0!
#3101756130
1!
#3101862798
0!
#3101886965
1!
#3101913052
0!
#3102041546
1!
#3102122375
0!
#3102226013
1!
#3102318945
0!
#3102389167
1!
#3102401373
0!
#3133366045
1!
#3133385971
0!
#3133400332
1!
#3133414396
0!
#3133424098
1!
#3133444473
0!
#3133449399
1!
#3133454972
0!
#3133467059
1!
#3133484577
0!
#3133495627
1!
#3133503441
0!
#3133514493
1!
#3133524894
0!
#3133545015
1!
#3133566805
0!
#3133571993
1!
#3133599739
0!
#3133605044
1!
#3133611557
0!
#3133615660
1!
#3133634713
0!
#3133649402
1!
#3133672985
0!
#3133680834
1!
#3133691495
0!
#3133695194
1!
#3133711640
0!
#3133732237
1!
#3133752647
0!
#3133763720
1!
#3133775944
0!
#3133800001
1!
#3133808432
0!
#3133822498
1!
#3133834171
0!
#3133837107
1!
#3133862182
0!
#3133876754
1!
#3133884560
0!
#3133888189
1!
#3133906978
0!
#3133912473
1!
#3133940337
0!
#3133945698
1!
#3133972442
0!
#3134000388
1!
#3134001073
0!
#3134023725
1!
#3134024534
0!
#3134033450
1!
#3134039129
0!
#3134061757
1!
#3134068781
0!
#3134071295
1!
#3134091464
0!
#3134097658
1!
#3134105485
0!
#3134110242
1!
#3134127334
0!
#3134142675
1!
#3134163008
0!
#3134165546
1!
#3134171347
0!
#3134183076
1!
#3134184354
0!
#3134204072
1!
#3134220671
0!
#3134224793
1!
#3134235165
0!
#3134244008
1!
#3134271886
0!
#3134277951
1!
#3134292430
0!
#3134312610
1!
#3134318760
0!
#3134334204
1!
#3134342985
0!
#3134361764
1!
#3134380145
0!
#3134398908
1!
#3134419374
0!
#3134427622
1!
#3134432729
0!
#3134444729
1!
#3134460025
0!
#3134483883
1!
#3134498583
0!
#3134501003
1!
#3134520659
0!
#3134531239
1!
#3134556703
0!
#3134575052
1!
#3134593701
0!
#3134620855
1!
#3134623982
0!
#3134630560
1!
#3134653505
0!
#3134665577
1!
#3134691676
0!
#3134692584
1!
#3134692944
0!
#3134706036
1!
#3134721228
0!
#3134745535
1!
#3134760820
0!
#3134786847
1!
#3134812720
0!
#3134817297
1!
#3134819732
0!
#3134846230
1!
#3134871151
0!
#3134898401
1!
#3134915007
0!
#3134923921
1!
#3134925953
0!
#3134929604
1!
#3134935952
0!
#3134943268
1!
#3134962518
0!
#3134966238
1!
#3134979331
0!
#3134995477
1!
#3135015995
0!
#3135030014
1!
#3135047779
0!
#3135075430
1!
#3135097802
0!
#3135109167
1!
#3135126822
0!
#3135140364
1!
#3135153102
0!
#3135158182
1!
#3135166216
0!
#3135168747
1!
#3135191801
0!
#3135212840
1!
#3135222170
0!
#3135238717
1!
#3135255483
0!
#3135280094
1!
#3135299543
0!
#3135318992
1!
#3135341814
0!
#3135364159
1!
#3135368556
0!
#3135390630
1!
#3135402179
0!
#3135417279
1!
#3135424727
0!
#3135425315
1!
#3135443635
0!
#3135450662
1!
#3135468368
0!
#3135481204
1!
#3135495516
0!
#3135504992
1!
#3528805833
1%
#3528825675
0%
#3529125675
1&
#3530831455
0&
#4466759384
0"
#4466943927
1"
#4467085877
0"
#4467115334
1"
#4467263769
0"
#4467373547
1"
#4467567283
0"
#4467783158
1"
#4468000805
0"
#4468039059
1"
#4468287804
0"
#4468362014
1"
#4468370494
0"
#4468464513
1"
#4468641449
0"
#4468684366
1"
#4468772046
0"
#4500248399
1"
#4500448122
0"
#4500785973
1"
#4500885669
0"
#4501042767
1"
#4501405384
0"
#4501637919
1"
#4501858672
0"
#4502322927
1"
#4528809208
1%
#4528825645
0%
#4529125645
1&
#4530831425
0&
#5433373238
0#
#5433474962
1#
#5433502583
0#
#5433511859
1#
#5433584182
0#
#5433617303
1#
#5433743527
0#
#5433879925
1#
#5433930163
0#
#5433990780
1#
#5434130748
0#
#5434256126
1#
#5434399174
0#
#5434446065
1#
#5434597173
0#
#5434703350
1#
#5434791019
0#
#5434918499
1#
#5434953572
0#
#5434982087
1#
#5435099999
0#
#5435146979
1#
#5435185226
0#
#5435335203
1#
#5435476785
0#
#5435591515
1#
#5435635851
0#
#5435752100
1#
#5435888130
0#
#5467067985
1#
#5467408693
0#
#5467876766
1#
#5468149818
0#
#5468632136
1#
#5468827617
0#
#5469192093
1#
#5469347675
0#
#5469558392
1#
#5528805817
1%
#5528825821
0%
#5529125821
1&
#5530831601
0&
#6528805867
1%
#6528821922
0%
#6529121922
1&
#6540650642
0&
#7066802025
0!
#7067008806
1!
#7067058859
0!
#7067167293
1!
#7067536371
0!
#7067776960
1!
#7067853537
0!
#7067960625
1!
#7068057715
0!
#7068140273
1!
#7068406268
0!
#7100013835
1!
#7100031142
0!
#7100046114
1!
#7100055769
0!
#7100071027
1!
#7100079540
0!
#7100092032
1!
#7100096415
0!
#7100106293
1!
#7100128461
0!
#7100141593
1!
#7100149564
0!
#7100170752
1!
#7100178567
0!
#7100178883
1!
#7100182122
0!
#7100184530
1!
#7100194727
0!
#7100210143
1!
#7100224890
0!
#7100231712
1!
#7100249801
0!
#7100256377
1!
#7100264260
0!
#7100270021
1!
#7100272455
0!
#7100273717
1!
#7100285594
0!
#7100295871
1!
#7100308692
0!
#7100312529
1!
#7100317572
0!
#7100338198
1!
#7100353528
0!
#7100374855
1!
#7100389416
0!
#7100407078
1!
#7100412650
0!
#7100414983
1!
#7100418092
0!
#7100420754
1!
#7100436147
0!
#7100444746
1!
#7100462539
0!
#7100464381
1!
#7100473324
0!
#7100492900
1!
#7100500958
0!
#7100515693
1!
#7100529388
0!
#7100547817
1!
#7100549182
0!
#7100554792
1!
#7100577150
0!
#7100597478
1!
#7100613433
0!
#7100633066
1!
#7100636219
0!
#7100655869
1!
#7100674587
0!
#7100689280
1!
#7100689816
0!
#7100694475
1!
#7100712962
0!
#7100731743
1!
#7100734566
0!
#7100751075
1!
#7100759649
0!
#7100779309
1!
#7100785632
0!
#7100805414
1!
#7100821287
0!
#7100826768
1!
#7100845407
0!
#7100857914
1!
#7100863255
0!
#7100878714
1!
#7100890703
0!
#7100898565
1!
#7100906104
0!
#7100915569
1!
#7100923539
0!
#7100937844
1!
#7100955011
0!
#7100956774
1!
#7100969976
0!
#7100973436
1!
#7100974601
0!
#7100985951
1!
#7100994590
0!
#7101006204
1!
#7101010501
0!
#7101029271
1!
#7101041877
0!
#7101063928
1!
#7101085021
0!
#7101090345
1!
#7101108593
0!
#7101117228
1!
#7101136525
0!
#7101155798
1!
#7101175669
0!
#7101177759
1!
#7101185758
0!
#7101200652
1!
#7101207612
0!
#7101228721
1!
#7101245466
0!
#7101261734
1!
#7101268972
0!
#7101284445
1!
#7101306437
0!
#7101318010
1!
#7101330711
0!
#7101336427
1!
#7101338984
0!
#7101358241
1!
#7101369127
0!
#7101370679
1!
#7101385518
0!
#7101385664
1!
#7101397889
0!
#7101412591
1!
#7101418930
0!
#7101440301
1!
#7101441499
0!
#7101452795
1!
#7101466478
0!
#7101474837
1!
#7101491877
0!
#7101496418
1!
#7101497890
0!
#7101508177
1!
#7101529937
0!
#7101537897
1!
#7101554041
0!
#7101555267
1!
#7101561213
0!
#7101566994
1!
#7101583913
0!
#7101591550
1!
#7101598756
0!
#7101610726
1!
#7101615354
0!
#7101630791
1!
#7101636953
0!
#7101657571
1!
#7101673714
0!
#7101688317
1!
#7101693312
0!
#7101707805
1!
#7101723843
0!
#7101740030
1!
#7101756353
0!
#7101770491
1!
#7101773781
0!
#7101792389
1!
#7101812575
0!
#7101834436
1!
#7101835132
0!
#7101857230
1!
#7101866527
0!
#7101882509
1!
#7101889203
0!
#7101903490
1!
#7101917347
0!
#7101937446
1!
#7101954443
0!
#7101957339
1!
#7101969129
0!
#7101987991
1!
#7101988676
0!
#7102010045
1!
#7102021100
0!
#7102036352
1!
#7102050523
0!
#7102057181
1!
#7102070840
0!
#7102083271
1!
#7102103877
0!
#7102122530
1!
#7102132137
0!
#7102134617
1!
#7102149575
0!
#7102169140
1!
#7102171499
0!
#7102185677
1!
#7102200028
0!
#7102218018
1!
#7102235967
0!
#7102248427
1!
#7102258021
0!
#7102260770
1!
#7102264932
0!
#7102277617
1!
#7528805672
1%
#7528825676
0%
#7529125676
1&
#7540654396
0&
#8200034883
0"
#8200061463
1"
#8200097375
0"
#8200116917
1"
#8200156880
0"
#8200172453
1"
#8200181410
0"
#8200220825
1"
#8200231349
0"
#8200249369
1"
#8200251313
0"
#8200260412
1"
#8200299522
0"
#8200304244
1"
#8200324719
0"
#8200326681
1"
#8200349066
0"
#8200365843
1"
#8200388715
0"
#8200397368
1"
#8200435315
0"
#8200440534
1"
#8200450438
0"
#8200471183
1"
#8200473014
0"
#8200482386
1"
#8200511748
0"
#8200534659
1"
#8200543461
0"
#8200554768
1"
#8200569903
0"
#8200593325
1"
#8200604826
0"
#8200627372
1"
#8200634755
0"
#8200636619
1"
#8200674983
0"
#8200686562
1"
#8200710488
0"
#8200750377
1"
#8200760593
0"
#8200794721
1"
#8200812121
0"
#8200828863
1"
#8200859479
0"
#8200862808
1"
#8200874461
0"
#8200880983
1"
#8200886762
0"
#8200894128
1"
#8200915853
0"
#8200916281
1"
#8200924377
0"
#8200941285
1"
#8200972430
0"
#8200985020
1"
#8200996768
0"
#8201010852
1"
#8201042716
0"
#8201054936
1"
#8201088566
0"
#8201108929
1"
#8201113023
0"
#8201152622
1"
#8201185098
0"
#8201214081
1"
#8201233512
0"
#8201264747
1"
#8201291563
0"
#8201308013
1"
#8201347884
0"
#8201367206
1"
#8201405143
0"
#8201420729
1"
#8201441051
0"
#8201453823
1"
#8201494129
0"
#8201504077
1"
#8201542068
0"
#8201547865
1"
#8201587097
0"
#8201603604
1"
#8201641753
0"
#8201657652
1"
#8201665748
0"
#8201698100
1"
#8201704577
0"
#8201708221
1"
#8201719014
0"
#8201724945
1"
#8201730043
0"
#8201750792
1"
#8201764689
0"
#8201799798
1"
#8201805861
0"
#8201817617
1"
#8201838691
0"
#8201848674
1"
#8201878631
0"
#8201898984
1"
#8201934478
0"
#8201958876
1"
#8201980357
0"
#8201996706
1"
#8202020379
0"
#8202050419
1"
#8202052310
0"
#8202086636
1"
#8202126706
0"
#8266698230
1"
#8266707674
0"
#8266709796
1"
#8266738770
0"
#8266751017
1"
#8266780328
0"
#8266791887
1"
#8266805377
0"
#8266822224
1"
#8266828693
0"
#8266828953
1"
#8266834035
0"
#8266850466
1"
#8266868631
0"
#8266882745
1"
#8266912099
0"
#8266920445
1"
#8266945536
0"
#8266953524
1"
#8266957629
0"
#8266967670
1"
#8266996783
0"
#8267007899
1"
#8267010090
0"
#8267033512
1"
#8267064969
0"
#8267089533
1"
#8267105823
0"
#8267112526
1"
#8267113037
0"
#8267117727
1"
#8267148256
0"
#8267175480
1"
#8267191545
0"
#8267209500
1"
#8267219447
0"
#8267223413
1"
#8267242212
0"
#8267250520
1"
#8267276441
0"
#8267281671
1"
#8267306137
0"
#8267315970
1"
#8267341999
0"
#8267350870
1"
#8267372924
0"
#8267401612
1"
#8267414689
0"
#8267433630
1"
#8267446161
0"
#8267447961
1"
#8267456793
0"
#8267482751
1"
#8267493866
0"
#8267511040
1"
#8267532916
0"
#8267552173
1"
#8267565543
0"
#8267575770
1"
#8267589594
0"
#8267605802
1"
#8267607440
0"
#8267627374
1"
#8267637029
0"
#8267658226
1"
#8267662319
0"
#8267693810
1"
#8267700280
0"
#8267704505
1"
#8267707012
0"
#8267717226
1"
#8267733742
0"
#8267747218
1"
#8267750423
0"
#8267768801
1"
#8267772344
0"
#8267789052
1"
#8267793067
0"
#8267797909
1"
#8267825617
0"
#8267838624
1"
#8267857229
0"
#8267869408
1"
#8267873595
0"
#8267888064
1"
#8267899084
0"
#8267925922
1"
#8267949602
0"
#8267959362
1"
#8267971742
0"
#8267995092
1"
#8268016536
0"
#8268047368
1"
#8268061478
0"
#8268065164
1"
#8268072907
0"
#8268076692
1"
#8268107716
0"
#8268109976
1"
#8268130367
0"
#8268131248
1"
#8268133410
0"
#8268140187
1"
#8268145264
0"
#8268174772
1"
#8268185765
0"
#8268203122
1"
#8268233516
0"
#8268261293
1"
#8268272775
0"
#8268289212
1"
#8268316632
0"
#8268347656
1"
#8268359273
0"
#8268372153
1"
#8268386956
0"
#8268403063
1"
#8268421092
0"
#8268422928
1"
#8268438368
0"
#8268469265
1"
#8268476626
0"
#8268508153
1"
#8268528500
0"
#8268545567
1"
#8268570276
0"
#8268572020
1"
#8268585229
0"
#8268610727
1"
#8268631377
0"
#8268648359
1"
#8268660701
0"
#8268692013
1"
#8268701610
0"
#8268721047
1"
#8268722363
0"
#8268722573
1"
#8528809206
1%
#8528824918
0%
#8529124918
1&
#8540653638
0&
#9528805842
1%
#9528825684
0%
#9529125684
1&
#9540654404
0&
#10166701344
0#
#10166728387
1#
#10166757643
0#
#10166773669
1#
#10166797714
0#
#10166811634
1#
#10166812157
0#
#10166825965
1#
#10166842192
0#
#10166871577
1#
#10166883485
0#
#10166893183
1#
#10166911502
0#
#10166927747
1#
#10166960061
0#
#10166972890
1#
#10167002109
0#
#10167026072
1#
#10167029354
0#
#10167046671
1#
#10167052857
0#
#10167082710
1#
#10167096212
0#
#10167120521
1#
#10167133685
0#
#10167152042
1#
#10167167848
0#
#10167181696
1#
#10167196294
0#
#10167209836
1#
#10167212654
0#
#10167238983
1#
#10167241255
0#
#10167245120
1#
#10167246302
0#
#10167267133
1#
#10167283807
0#
#10167293121
1#
#10167295003
0#
#10167324419
1#
#10167342904
0#
#10167345613
1#
#10167357717
0#
#10167377272
1#
#10167400787
0#
#10167415670
1#
#10167421819
0#
#10167438546
1#
#10167456579
0#
#10167471685
1#
#10167479153
0#
#10167506771
1#
#10167518792
0#
#10167532684
1#
#10167552843
0#
#10167578724
1#
#10167608317
0#
#10167626522
1#
#10167655817
0#
#10167686861
1#
#10167687890
0#
#10167715379
1#
#10167742424
0#
#10167767983
1#
#10167779487
0#
#10167796316
1#
#10167815672
0#
#10167822418
1#
#10167826654
0#
#10167852017
1#
#10167861032
0#
#10167888174
1#
#10167907063
0#
#10167908762
1#
#10167916279
0#
#10167943165
1#
#10167943868
0#
#10167955472
1#
#10167969488
0#
#10168001376
1#
#10168007054
0#
#10168036610
1#
#10168054855
0#
#10168085398
1#
#10168088685
0#
#10168119921
1#
#10168139385
0#
#10168167332
1#
#10168172285
0#
#10168200690
1#
#10168217921
0#
#10168239733
1#
#10168266294
0#
#10168276406
1#
#10168298333
0#
#10168330887
1#
#10168343286
0#
#10168363801
1#
#10168386607
0#
#10168388436
1#
#10168419306
0#
#10168421197
1#
#10168443709
0#
#10168465948
1#
#10168474844
0#
#10168502704
1#
#10168504912
0#
#10168510783
1#
#10168520992
0#
#10168544439
1#
#10168570602
0#
#10168589618
1#
#10168600292
0#
#10168632932
1#
#10168649737
0#
#10168654242
1#
#10168676115
0#
#10168679270
1#
#10168711853
0#
#10168730378
1#
#10168735371
0#
#10168768433
1#
#10168777281
0#
#10168795544
1#
#10168816119
0#
#10168821168
1#
#10168841315
0#
#10168863461
1#
#10168894890
0#
#10168925888
1#
#10168942120
0#
#10168948347
1#
#10168976711
0#
#10200117102
1#
#10200148003
0#
#10200185787
1#
#10200261734
0#
#10200390643
1#
#10200428543
0#
#10200514745
1#
#10200596938
0#
#10200713670
1#
#10200755228
0#
#10200843555
1#
#10200962995
0#
#10200987410
1#
#10201026121
0#
#10201074772
1#
#10201076790
0#
#10201081748
1#
#10201106784
0#
#10201112668
1#
#10201125136
0#
#10201168792
1#
#10201248120
0#
#10201330125
1#
#10201422561
0#
#10201448632
1#
#10201536704
0#
#10201578251
1#
#10201585181
0#
#10201682547
1#
#10201723666
0#
#10201755155
1#
#10201779891
0#
#10201810570
1#
#10528805871
1%
#10528821925
0%
#10529121925
1&
#10540650645
0&
#11528805886
1%
#11528821940
0%
#11529121940
1&
#11539650720
0&
#12133355490
0!
#12133372309
1!
#12133379063
0!
#12133379884
1!
#12133392429
0!
#12133398762
1!
#12133405503
0!
#12133407317
1!
#12133440073
0!
#12133474389
1!
#12133483808
0!
#12133498693
1!
#12133523519
0!
#12133524910
1!
#12133543459
0!
#12133582633
1!
#12133612471
0!
#12133613856
1!
#12133638094
0!
#12133659363
1!
#12133699616
0!
#12133721102
1!
#12133730567
0!
#12133732452
1!
#12133752781
0!
#12133785881
1!
#12133804436
0!
#12133818506
1!
#12133847176
0!
#12133855539
1!
#12133881092
0!
#12133917266
1!
#12133955611
0!
#12133985092
1!
#12134024751
0!
#12134026920
1!
#12134048927
0!
#12134074108
1!
#12134103622
0!
#12134131045
1!
#12134150267
0!
#12134158891
1!
#12134180781
0!
#12134193900
1!
#12134203150
0!
#12134236541
1!
#12134266538
0!
#12134284120
1!
#12134304528
0!
#12134316907
1!
#12134322985
0!
#12134337256
1!
#12134346282
0!
#12134384178
1!
#12134398840
0!
#12134434579
1!
#12134452264
0!
#12134455199
1!
#12134492796
0!
#12134507965
1!
#12134535439
0!
#12134564346
1!
#12134573576
0!
#12134597336
1!
#12134611565
0!
#12134636288
1!
#12134641207
0!
#12134667559
1!
#12134690918
0!
#12134702505
1!
#12134727612
0!
#12134760969
1!
#12134767094
0!
#12134805586
1!
#12134837917
0!
#12134846306
1!
#12134872611
0!
#12134888395
1!
#12134925543
0!
#12134956505
1!
#12134990473
0!
#12134994047
1!
#12135013854
0!
#12135035535
1!
#12135074416
0!
#12135096487
1!
#12135115905
0!
#12135142911
1!
#12135171495
0!
#12135209857
1!
#12135229363
0!
#12135245042
1!
#12135255307
0!
#12135293660
1!
#12135299280
0!
#12135332175
1!
#12135367590
0!
#12135387739
1!
#12135395298
0!
#12135413241
1!
#12135419496
0!
#12135449773
1!
#12135471007
0!
#12135479952
1!
#12135506507
0!
#12135513749
1!
#12135528261
0!
#12200033897
1!
#12200055382
0!
#12200081705
1!
#12200098399
0!
#12200110057
1!
#12200126811
0!
#12200131007
1!
#12200159420
0!
#12200182738
1!
#12200191142
0!
#12200224256
1!
#12200253913
0!
#12200257863
1!
#12200278565
0!
#12200294393
1!
#12200301040
0!
#12200336205
1!
#12200359062
0!
#12200391407
1!
#12200417795
0!
#12200429811
1!
#12200447730
0!
#12200466634
1!
#12200468899
0!
#12200497164
1!
#12200530114
0!
#12200539837
1!
#12200562320
0!
#12200567032
1!
#12200586984
0!
#12200619050
1!
#12200624442
0!
#12200634771
1!
#12200671512
0!
#12200678048
1!
#12200714864
0!
#12200735290
1!
#12200770804
0!
#12200811227
1!
#12200819444
0!
#12200826654
1!
#12200845830
0!
#12200847413
1!
#12200887980
0!
#12200891904
1!
#12200925263
0!
#12200964211
1!
#12201000166
0!
#12201017727
1!
#12201050209
0!
#12201090788
1!
#12201114548
0!
#12201126380
1!
#12201155616
0!
#12201162833
1!
#12201169005
0!
#12201176318
1!
#12201194580
0!
#12201208325
1!
#12201217988
0!
#12201237468
1!
#12201265260
0!
#12201283555
1!
#12201294544
0!
#12201320447
1!
#12201351654
0!
#12201385187
1!
#12201413416
0!
#12201426760
1!
#12201445050
0!
#12201462933
1!
#12201471804
0!
#12201473719
1!
#12201484270
0!
#12201503467
1!
#12201538118
0!
#12201549769
1!
#12201552449
0!
#12201559021
1!
#12201598663
0!
#12201605842
1!
#12201623535
0!
#12201626177
1!
#12201652610
0!
#12201662903
1!
#12201669514
0!
#12201689808
1!
#12201724733
0!
#12201746319
1!
#12201782238
0!
#12201806868
1!
#12201825466
0!
#12201840127
1!
#12201876882
0!
#12201879932
1!
#12201893326
0!
#12201914188
1!
#12201918224
0!
#12201946248
1!
#12201982478
0!
#12202021148
1!
#12202054784
0!
#12202070348
1!
#12202098758
0!
#12202113917
1!
#12202150420
0!
#12202178293
1!
#12528805723
1%
#12528825727
0%
#12529125727
1&
#12531125607
0&
#13528805880
1%
#13528821934
0%
#13529121934
1&
#13529827774
0&
#13530471242
1$
#13980037657
0!
#13980042563
1!
#13980046555
0!
#13980065809
1!
#13980089637
0!
#13980104256
1!
#13980112426
0!
#13980136884
1!
#13980141012
0!
#13980148902
1!
#13980162019
0!
#13980182767
1!
#13980182892
0!
#13980183661
1!
#13980189675
0!
#13980189790
1!
#13980213570
0!
#13980233235
1!
#13980256695
0!
#13980267068
1!
#13980284261
0!
#13980301769
1!
#13980317814
0!
#13980319268
1!
#13980328483
0!
#13980332230
1!
#13980334756
0!
#13980357797
1!
#13980371305
0!
#13980383041
1!
#13980395889
0!
#13980417034
1!
#13980421674
0!
#13980422371
1!
#13980441783
0!
#13980442080
1!
#13980464621
0!
#13980472273
1!
#13980496683
0!
#13980518117
1!
#13980535786
0!
#13980555376
1!
#13980579460
0!
#13980595607
1!
#13980598366
0!
#13980607332
1!
#13980621880
0!
#13980625795
1!
#13980632638
0!
#13980641329
1!
#13980655663
0!
#13980667573
1!
#13980675654
0!
#13980693274
1!
#13980697405
0!
#13980697536
1!
#13980703180
0!
#13980722436
1!
#13980728087
0!
#13980733919
1!
#13980750549
0!
#13980756837
1!
#13980770769
0!
#13980783414
1!
#13980800203
0!
#13980810611
1!
#13980832514
0!
#13980850006
1!
#13980873728
0!
#13980889989
1!
#13980893059
0!
#13980917443
1!
#13980926693
0!
#13980943626
1!
#13980953516
0!
#13980957757
1!
#13980969451
0!
#13980972388
1!
#13980984893
0!
#13980985631
1!
#13980989372
0!
#13981004515
1!
#13981022882
0!
#13981047704
1!
#13981067902
0!
#13981090837
1!
#13981102968
0!
#13981117849
1!
#13981138036
0!
#13981148075
1!
#13981148647
0!
#13981172583
1!
#13981176048
0!
#13981186069
1!
#13981187447
0!
#13981200471
1!
#13981216040
0!
#13981220462
1!
#13981244356
0!
#13981253073
1!
#13981270502
0!
#13981274356
1!
#13981277630
0!
#13981296266
1!
#13981297120
0!
#13981318154
1!
#13981325009
0!
#13981340970
1!
#13981352737
0!
#13981361761
1!
#13981363780
0!
#13981372267
1!
#13981390236
0!
#13981409446
1!
#13981428679
0!
#13981450454
1!
#13981454303
0!
#13981477342
1!
#13981489903
0!
#13981505439
1!
#13981514441
0!
#13981529241
1!
#13981548954
0!
#13981562863
1!
#13981568768
0!
#13981570096
1!
#13981584505
0!
#13981589800
1!
#13981598866
0!
#13981616026
1!
#13981632545
0!
#13981639003
1!
#13981641983
0!
#13981643049
1!
#13981663699
0!
#13981684871
1!
#13981707252
0!
#13981707798
1!
#13981730525
0!
#13981740187
1!
#13981764782
0!
#13981776479
1!
#13981782837
0!
#13981802845
1!
#13981819427
0!
#13981820422
1!
#13981843198
0!
#13981862460
1!
#13981866700
0!
#13981876520
1!
#13981880195
0!
#13981886888
1!
#13981909038
0!
#13981909246
1!
#13981922527
0!
#13981940817
1!
#13981947340
0!
#13981958693
1!
#13981972718
0!
#13981972924
1!
#13981996885
0!
#13982004138
1!
#13982005138
0!
#13982008010
1!
#13982032612
0!
#13982035310
1!
#13982046978
0!
#13982053797
1!
#13982076754
0!
#13982088925
1!
#13982105821
0!
#13982113133
1!
#13982137912
0!
#13982156440
1!
#13982159138
0!
#13982174167
1!
#13982177944
0!
#14013386422
1!
#14013415621
0!
#14013428905
1!
#14013432731
0!
#14013467575
1!
#14013471449
0!
#14013479224
1!
#14013493265
0!
#14013498932
1!
#14013506754
0!
#14013538590
1!
#14013560790
0!
#14013588381
1!
#14013604200
0!
#14013615582
1!
#14013648203
0!
#14013653805
1!
#14013672724
0!
#14013701184
1!
#14013706645
0!
#14013712693
1!
#14013729296
0!
#14013746284
1!
#14013747190
0!
#14013751433
1!
#14013762800
0!
#14013763866
1!
#14013766554
0!
#14013795231
1!
#14013804738
0!
#14013814360
1!
#14013819026
0!
#14013819666
1!
#14013823048
0!
#14013856225
1!
#14013872649
0!
#14013891333
1!
#14013903918
0!
#14013928706
1!
#14013954882
0!
#14013968196
1!
#14013979933
0!
#14014014899
1!
#14014031854
0!
#14014038134
1!
#14014069701
0!
#14014089904
1!
#14014090703
0!
#14014121925
1!
#14014132408
0!
#14014132764
1!
#14014139115
0!
#14014144849
1!
#14014158793
0!
#14014187495
1!
#14014214740
0!
#14014237946
1!
#14014244079
0!
#14014272614
1!
#14014275090
0!
#14014283617
1!
#14014297535
0!
#14014323085
1!
#14014333311
0!
#14014340825
1!
#14014346596
0!
#14014365590
1!
#14014381643
0!
#14014413646
1!
#14014421373
0!
#14014423052
1!
#14014423268
0!
#14014442061
1!
#14014461451
0!
#14014477957
1!
#14014508011
0!
#14014512703
1!
#14014537718
0!
#14014549832
1!
#14014576086
0!
#14014583943
1!
#14014605815
0!
#14014623794
1!
#14014633999
0!
#14014641764
1!
#14014655726
0!
#14014684170
1!
#14014715448
0!
#14014720789
1!
#14014738295
0!
#14014764809
1!
#14014765135
0!
#14014765799
1!
#14014783200
0!
#14014792160
1!
#14014795676
0!
#14014829493
1!
#14014846986
0!
#14014847266
1!
#14014850232
0!
#14014864274
1!
#14014891905
0!
#14014924189
1!
#14014935412
0!
#14014936294
1!
#14014944994
0!
#14014971196
1!
#14014995661
0!
#14015024471
1!
#14015049320
0!
#14015061837
1!
#14015091558
0!
#14015102782
1!
#14015115091
0!
#14015148115
1!
#14015162756
0!
#14015188458
1!
#14015209446
0!
#14015232341
1!
#14015266718
0!
#14015283042
1!
#14015307398
0!
#14015330661
1!
#14015334458
0!
#14015363668
1!
#14528805858
1%
#14528825700
0%
#14529125700
1&
#14529831540
0&
#14813373321
0"
#14813391561
1"
#14813392628
0"
#14813412830
1"
#14813423299
0"
#14813432803
1"
#14813441072
0"
#14813447455
1"
#14813453208
0"
#14813463018
1"
#14813472668
0"
#14813476347
1"
#14813493026
0"
#14813494442
1"
#14813508051
0"
#14813515363
1"
#14813530154
0"
#14813540161
1"
#14813543470
0"
#14813545550
1"
#14813562803
0"
#14813582731
1"
#14813588334
0"
#14813588569
1"
#14813593128
0"
#14813599995
1"
#14813602560
0"
#14813624614
1"
#14813643997
0"
#14813649302
1"
#14813667698
0"
#14813671456
1"
#14813692781
0"
#14813711863
1"
#14813732187
0"
#14813743088
1"
#14813757755
0"
#14813776971
1"
#14813796954
0"
#14813798969
1"
#14813806095
0"
#14813822221
1"
#14813838313
0"
#14813857747
1"
#14813860532
0"
#14813867764
1"
#14813886453
0"
#14813904758
1"
#14813917039
0"
#14813919769
1"
#14813921427
0"
#14813935286
1"
#14813939606
0"
#14813947783
1"
#14813963962
0"
#14813969756
1"
#14813974498
0"
#14813975610
1"
#14813995679
0"
#14814004152
1"
#14814014072
0"
#14814026777
1"
#14814029393
0"
#14814048070
1"
#14814069606
0"
#14814089968
1"
#14814103638
0"
#14814119004
1"
#14814127066
0"
#14814130869
1"
#14814149106
0"
#14814164090
1"
#14814174908
0"
#14814187564
1"
#14814206099
0"
#14814220581
1"
#14814224817
0"
#14814237156
1"
#14814239461
0"
#14814259010
1"
#14814273770
0"
#14814279300
1"
#14814281608
0"
#14814290815
1"
#14814297143
0"
#14814304777
1"
#14814308136
0"
#14814314109
1"
#14814317686
0"
#14814339771
1"
#14814359341
0"
#14814361699
1"
#14814364242
0"
#14814366392
1"
#14814374047
0"
#14814386261
1"
#14814402093
0"
#14814412093
1"
#14814432087
0"
#14814442103
1"
#14814455134
0"
#14814458996
1"
#14814479233
0"
#14814487303
1"
#14814509026
0"
#14814512297
1"
#14814514155
0"
#14814532318
1"
#14814548058
0"
#14814549309
1"
#14814565078
0"
#14814569651
1"
#14814588469
0"
#14814594496
1"
#14814599696
0"
#14814608288
1"
#14814618132
0"
#14814634252
1"
#14814649542
0"
#14814665670
1"
#14814667478
0"
#14814687412
1"
#14814704399
0"
#14814710807
1"
#14814730685
0"
#14814735058
1"
#14814740890
0"
#14814747979
1"
#14814753792
0"
#14814774788
1"
#14814775040
0"
#14814788971
1"
#14814790476
0"
#14814795929
1"
#14814811223
0"
#14814823959
1"
#14814839682
0"
#14814853548
1"
#14814857250
0"
#14814866149
1"
#14814874414
0"
#14814894633
1"
#14814915083
0"
#14814934624
1"
#14814957064
0"
#14814963511
1"
#14814979716
0"
#14814980666
1"
#14814987587
0"
#14815005806
1"
#14815024570
0"
#14815039886
1"
#14815060142
0"
#14815071857
1"
#14815081829
0"
#14815096021
1"
#14815117009
0"
#14815130653
1"
#14815141525
0"
#14815150365
1"
#14815167832
0"
#14815190182
1"
#14815196948
0"
#14815202340
1"
#14815210184
0"
#14815230646
1"
#14815249713
0"
#14815262888
1"
#14815263831
0"
#14815268280
1"
#14815290193
0"
#14815311262
1"
#14815328487
0"
#14815341707
1"
#14815360261
0"
#14815363971
1"
#14815364761
0"
#14815367906
1"
#14815368373
0"
#14815383773
1"
#14815399352
0"
#14815417779
1"
#14815431117
0"
#14815444942
1"
#14815463958
0"
#14815466973
1"
#14815473529
0"
#14815487394
1"
#14815506075
0"
#14815519212
1"
#14815535703
0"
#14815555183
1"
#14815574136
0"
#14815575987
1"
#14815578022
0"
#14846717870
1"
#14846732092
0"
